[
  "Antal",
  "Samoilă",
  "Trifan",
  "Suditu",
  "Lungu",
  "Duțu",
  "Jurcă",
  "Hosu",
  "Munteanu",
  "Paraschivescu",
  "Armeanu",
  "Cocea",
  "Pătrașcu",
  "Militaru",
  "Drugă",
  "Toma",
  "Văcariu",
  "Tarcea",
  "Pătraș",
  "Sanda",
  "Guran",
  "Grozavu",
  "Sandu",
  "Poenaru",
  "Banea",
  "Petrovici",
  "Paul",
  "Pârlog",
  "Gligor",
  "Deneș",
  "Ichim",
  "Simion",
  "Achiței",
  "Ștefănescu",
  "Onea",
  "Mitrache",
  "Pricopi",
  "Moroșan",
  "Moisescu",
  "Ionaș",
  "Cozma",
  "Voinea",
  "Pricope",
  "Staicu",
  "Gălățanu",
  "Dimitriu",
  "Nuțu",
  "Mandache",
  "Melinte",
  "Pavăl",
  "Agache",
  "Nedelcu",
  "Ivanciu",
  "Anghel",
  "Grosu",
  "Cioancă",
  "Mitrică",
  "Stan",
  "Mărginean",
  "Cândea",
  "Baltag",
  "Tudor",
  "Gheorghe",
  "Manea",
  "Rădescu",
  "Șandru",
  "Boghean",
  "Huțu",
  "Trandafir",
  "Arghir",
  "Aniței",
  "Dascălu",
  "Lung",
  "Tabără",
  "Mera",
  "Bobocea",
  "Zamfir",
  "Cioban",
  "Plăcintă",
  "Sturzu",
  "Nuță",
  "Cărăușu",
  "Țenea",
  "Capră",
  "Vasilescu",
  "Antonescu",
  "Mihaiu",
  "Gheorghiță",
  "Mihail",
  "Costache",
  "Lepădatu",
  "Măgureanu",
  "Drăgoi",
  "Orza",
  "Rizea",
  "Lucan",
  "Popan",
  "Bodnar",
  "Bălăceanu",
  "Roșioru",
  "Tăban",
  "Ardelean",
  "Grigorie",
  "Mocanu",
  "Alb",
  "Gâlcă",
  "Gălățeanu",
  "Bucătaru",
  "Grigoriu",
  "Dumitrescu",
  "Ciocoiu",
  "Rățoi",
  "Silvestru",
  "Blaga",
  "Costin",
  "Orzan",
  "Moga",
  "Dumitrică",
  "Prună",
  "Călugăru",
  "Pancu",
  "Bădărău",
  "Bandi",
  "Buțu",
  "Pascariu",
  "Iliuță",
  "Șanta",
  "Oțelea",
  "Huțanu",
  "Delcea",
  "Mitroi",
  "Huzum",
  "Bâlcan",
  "Cârjan",
  "Breban",
  "Pavelescu",
  "Dragomirescu",
  "Nicolescu",
  "Brânzan",
  "Asavei",
  "Țicu",
  "Ciceu",
  "Neculae",
  "Ciuciu",
  "Pârvan",
  "Giurgea",
  "Pădurariu",
  "Neculai",
  "Bejan",
  "Tulbure",
  "Dodu",
  "Popoviciu",
  "Oneț",
  "Drăgulin",
  "Gălan",
  "Raț",
  "Bădilă",
  "Mesaroș",
  "Mitrofan",
  "Pintilie",
  "Nicolau",
  "Sorescu",
  "Puica",
  "Grigore",
  "Nicolae",
  "Ciucur",
  "Pistol",
  "Oprescu",
  "Tofan",
  "Sofian",
  "Velea",
  "Ristea",
  "Buță",
  "Țone",
  "Tcaciuc",
  "Vișan",
  "Țuță",
  "Botezatu",
  "Pășcălău",
  "Vălean",
  "Deaconescu",
  "Zărnescu",
  "Amariei",
  "Cherecheș",
  "Craiu",
  "Petrescu",
  "Chihaia",
  "Cojan",
  "Chiriac",
  "Banu",
  "Tripon",
  "Isac",
  "Câmpean",
  "Bugă",
  "Tudosie",
  "Dinescu",
  "Cojocea",
  "Luca",
  "Ivan",
  "Liță",
  "Teodoru",
  "Lucaciu",
  "Bercea",
  "Surugiu",
  "Samson",
  "Rențea",
  "Martinescu",
  "Curelea",
  "Popovici",
  "Fota",
  "Goran",
  "Cioată",
  "Stancu",
  "Pădurean",
  "Sasu",
  "Datcu",
  "Ilieș",
  "Gâscă",
  "Crihan",
  "Criste",
  "Niculae",
  "Stângaciu",
  "Iovan",
  "Pescaru",
  "Negrescu",
  "Dumea",
  "Niculescu",
  "Boicu",
  "Luncan",
  "Obreja",
  "Iojă",
  "Botez",
  "Dușa",
  "Manolescu",
  "Rus",
  "Botea",
  "Leonte",
  "Movilă",
  "Găină",
  "Mirescu",
  "Blănaru",
  "Filimon",
  "Șișu",
  "Drăgușin",
  "Danci",
  "Băcanu",
  "Tomoioagă",
  "Șuteu",
  "Erdei",
  "Mardare",
  "Pădure",
  "Vartolomei",
  "Cordoș",
  "Mihuț",
  "Bivolaru",
  "Constantin",
  "Gavrilă",
  "Catargiu",
  "Șerbănoiu",
  "Horga",
  "Brumă",
  "Voicu",
  "Alexandru",
  "Găitan",
  "Caia",
  "Voica",
  "Calotă",
  "Lazăr",
  "Vizitiu",
  "Ailincăi",
  "Bordei",
  "Vlase",
  "Enea",
  "Zăvoianu",
  "Iacob",
  "Preda",
  "Nae",
  "Gușă",
  "Călina",
  "Șelaru",
  "Frâncu",
  "Caragea",
  "Păsat",
  "Plugaru",
  "Andronache",
  "Boldea",
  "Luță",
  "Petran",
  "Mangu",
  "Trașcă",
  "Petraru",
  "Burcă",
  "Pițigoi",
  "Cazacu",
  "Bulgaru",
  "Curcă",
  "Breazu",
  "Cărstea",
  "Rada",
  "Maior",
  "Dărăban",
  "Gal",
  "Lupu",
  "Mihalcea",
  "Sălăgean",
  "Văduva",
  "Roșu",
  "Grozea",
  "Tănase",
  "Olteanu",
  "Amăriuței",
  "Grasu",
  "Mihăilă",
  "Perianu",
  "Bărbat",
  "Meșter",
  "Tamaș",
  "Cristurean",
  "Chirițescu",
  "Țurcaș",
  "Corneanu",
  "Hrișcu",
  "Miclăuș",
  "Gligă",
  "Nicolaescu",
  "Boldeanu",
  "Ambruș",
  "Lupescu",
  "Culea",
  "Daniliuc",
  "Săndulache",
  "Lascu",
  "Cloșcă",
  "Crăciunescu",
  "Vlăduț",
  "Neag",
  "Ciornei",
  "Stăncescu",
  "Mitran",
  "Lăpușneanu",
  "Ciocan",
  "Mișca",
  "Cuc",
  "Nistor",
  "Dospinescu",
  "Costea",
  "Pleșcan",
  "Proca",
  "Mustățea",
  "Tănasă",
  "Hanu",
  "Clinciu",
  "Țârlea",
  "Coadă",
  "Petrache",
  "Sârcă",
  "Androne",
  "Vlaicu",
  "Ciortan",
  "Butnariu",
  "Turbatu",
  "Preoteasa",
  "Mosor",
  "Nicula",
  "Drăghia",
  "Tivadar",
  "Bledea",
  "Ancuța",
  "Todică",
  "Vulcu",
  "Chiran",
  "Coșa",
  "Mihăescu",
  "Andrei",
  "Stoicescu",
  "Chindriș",
  "Timofte",
  "Rogoz",
  "Costa",
  "Coste",
  "Vâlceanu",
  "Neagoe",
  "Bulai",
  "Hamza",
  "Purcaru",
  "Vladu",
  "Uță",
  "Tudorică",
  "Prisăcaru",
  "Zaharie",
  "Lăzăroiu",
  "Duță",
  "Olariu",
  "Ciuraru",
  "Dragoman",
  "Băilă",
  "Coroiu",
  "Dan",
  "Codău",
  "Comănescu",
  "Susanu",
  "Tăuț",
  "Oltean",
  "Bujor",
  "Cârciumaru",
  "Lăzărescu",
  "Platon",
  "Matei",
  "Onica",
  "Petrariu",
  "Lupan",
  "Deliu",
  "Doboș",
  "Bulboacă",
  "Iftimie",
  "Danciu",
  "Mihalache",
  "Prisecaru",
  "Pletea",
  "Țarălungă",
  "Buzaș",
  "Bojan",
  "Barbălată",
  "Adochiței",
  "Cucoș",
  "Vlăsceanu",
  "Săraru",
  "Cernat",
  "Amarandei",
  "Darie",
  "Suciu",
  "Macovei",
  "Chivu",
  "Mihu",
  "Sârbu",
  "Palade",
  "David",
  "Socaciu",
  "Borz",
  "Miclea",
  "Deac",
  "Păcurar",
  "Humă",
  "Chelariu",
  "Bora",
  "Onică",
  "Călin",
  "Prioteasa",
  "Dănăilă",
  "Băluță",
  "Moșneagu",
  "Macsim",
  "Petrică",
  "Popoiu",
  "Păcuraru",
  "Bordeianu",
  "Nițescu",
  "Bură",
  "Negoescu",
  "Ciofu",
  "Chiper",
  "Talpoș",
  "Bran",
  "Popa",
  "Răileanu",
  "Bunea",
  "Agafiței",
  "Panainte",
  "Burada",
  "Cucu",
  "Antohe",
  "Udrea",
  "Viziteu",
  "Mic",
  "Cozac",
  "Miu",
  "Horvat",
  "Sângeorzan",
  "Păun",
  "Vasiloiu",
  "Fodor",
  "Filote",
  "Codrea",
  "Barac",
  "Băcilă",
  "Marinca",
  "Urs",
  "Covrig",
  "Dâncu",
  "Zota",
  "Badea",
  "Rău",
  "Grigorescu",
  "Trif",
  "Blendea",
  "Boian",
  "Purcărea",
  "Amza",
  "Stoica",
  "Mureșan",
  "Muscă",
  "Vărzaru",
  "Iovu",
  "Savin",
  "Mateș",
  "Aron",
  "Todoran",
  "Tătaru",
  "Pârlea",
  "Goia",
  "Răchieru",
  "Bercaru",
  "Ilinca",
  "Mănăilă",
  "Milu",
  "Bodescu",
  "Condurache",
  "Vancea",
  "Puică",
  "Smeu",
  "Baltă",
  "Gavriluță",
  "Furtună",
  "Asaftei",
  "Petrișor",
  "Puia",
  "Săvescu",
  "Năstasă",
  "Bălu",
  "Dudu",
  "Sava",
  "Tudorie",
  "Iordănescu",
  "Copil",
  "Marian",
  "Dobai",
  "Vulcan",
  "Șulea",
  "Dehelean",
  "Pârvulescu",
  "Marchiș",
  "Demian",
  "Cioc",
  "Căzan",
  "Stana",
  "Zainea",
  "Grama",
  "Nedea",
  "Vulpe",
  "Drăgulescu",
  "Venter",
  "Topor",
  "Boca",
  "Monea",
  "Tiron",
  "Zanfir",
  "Greavu",
  "Miculescu",
  "Ormenișan",
  "Andone",
  "Atodiresei",
  "Bucă",
  "Jugănaru",
  "Orășanu",
  "Stănescu",
  "Milea",
  "Șchiopu",
  "Ghimpu",
  "Băban",
  "Bărbuță",
  "Turcu",
  "Neagu",
  "Juncu",
  "Covaci",
  "Vida",
  "Brânzei",
  "Mihai",
  "Fechete",
  "Chitic",
  "Savu",
  "Bucur",
  "Berbece",
  "Aioanei",
  "Pastor",
  "Herghelegiu",
  "Focă",
  "Gâgiu",
  "Lipan",
  "Potop",
  "Ariton",
  "Buzdugan",
  "Niculiță",
  "Vișoiu",
  "Feraru",
  "Stuparu",
  "Năstase",
  "Iepure",
  "Mincu",
  "Bărcan",
  "Ilie",
  "Vlădescu",
  "Panait",
  "Pintilei",
  "Fărcaș",
  "Florea",
  "Constantinescu",
  "Mateiu",
  "Strugaru",
  "Căruntu",
  "Berinde",
  "Burduja",
  "Pelin",
  "Turc",
  "Severin",
  "Cornea",
  "Lăcătuș",
  "Gherman",
  "Rădoi",
  "Bochiș",
  "Butnaru",
  "Lică",
  "Câmpeanu",
  "Racu",
  "Todor",
  "Mogoș",
  "Pralea",
  "Dobrescu",
  "Giura",
  "Bobu",
  "Anghelache",
  "Pungă",
  "Doșa",
  "Gavra",
  "Băjan",
  "Chircu",
  "Bodea",
  "Ailenei",
  "Căpățână",
  "Spătaru",
  "Crâșmaru",
  "Coman",
  "Jiga",
  "Popescu",
  "Avramescu",
  "Pătru",
  "Niță",
  "Andrieș",
  "Arsenie",
  "Bereș",
  "Eremia",
  "Negură",
  "Văleanu",
  "Drăguș",
  "Drăguț",
  "Ciubotariu",
  "Truică",
  "Țepeș",
  "Paiu",
  "Rotaru",
  "Grămadă",
  "Budescu",
  "Nicoară",
  "Focșa",
  "Dorobanțu",
  "Ceapă",
  "Stănciulescu",
  "Grigoraș",
  "Mercea",
  "Romilă",
  "Ganea",
  "Spânu",
  "Buzea",
  "Micle",
  "Nițu",
  "Florian",
  "Tatu",
  "Dicu",
  "Pușcaș",
  "Chelaru",
  "Rațiu",
  "Zamfirescu",
  "Borcan",
  "Ciobotaru",
  "Covaciu",
  "Socol",
  "Trofin",
  "Buzoianu",
  "Ruță",
  "Eftimie",
  "Purice",
  "Balog",
  "Nițulescu",
  "Gagea",
  "Mitea",
  "Burlan",
  "Gâlea",
  "Muntean",
  "Cișmaș",
  "Bădiță",
  "Țăranu",
  "Brașoveanu",
  "Bertea",
  "Cărare",
  "Bolohan",
  "Dănescu",
  "Lavric",
  "Țărău",
  "Chirilă",
  "Mărculescu",
  "Pleș",
  "Tripa",
  "Solomon",
  "Pricop",
  "Ploșcaru",
  "Mardale",
  "Pisică",
  "Leu",
  "Ferenț",
  "Stoian",
  "Mare",
  "Marc",
  "Rogojan",
  "Nedelea",
  "Pântea",
  "Oprean",
  "Avădanei",
  "Mirică",
  "Gogu",
  "Mărieș",
  "Condrea",
  "Acatrinei",
  "Gologan",
  "Goga",
  "Chițu",
  "Negulescu",
  "Urzică",
  "Rugină",
  "Moldovanu",
  "Bontaș",
  "Creț",
  "Moisă",
  "Balint",
  "Atanasiu",
  "Pușcașu",
  "Holban",
  "Tăbăcaru",
  "Roșianu",
  "Dorobăț",
  "Chiorean",
  "Burciu",
  "Oprișor",
  "Druță",
  "Hotea",
  "Blându",
  "Tucă",
  "Maftei",
  "Patrichi",
  "Grozav",
  "Patriche",
  "Panțiru",
  "Apopei",
  "Mocan",
  "Oșan",
  "Frunză",
  "Tudorache",
  "Mlădin",
  "Crăciun",
  "Musteață",
  "Lupașcu",
  "Cișmaru",
  "Bud",
  "Jinga",
  "Manciu",
  "Boar",
  "Artene",
  "Moise",
  "Șova",
  "Bărăbaș",
  "Indrieș",
  "Vornicu",
  "Bobeș",
  "Gurău",
  "Bădoi",
  "Vasile",
  "Oprișan",
  "Adăscăliței",
  "Benea",
  "Mănescu",
  "Sabou",
  "Ardeleanu",
  "Dominte",
  "Glăvan",
  "Maier",
  "Pantelimon",
  "Miron",
  "Major",
  "Voinescu",
  "Țeglaș",
  "Mărgineanu",
  "Mitrea",
  "Blaj",
  "Capotă",
  "Tache",
  "Burlacu",
  "Cociș",
  "Onigă",
  "Manole",
  "Mititelu",
  "Vas",
  "Mihoc",
  "Urdea",
  "Catană",
  "Bărbulescu",
  "Someșan",
  "Gherghel",
  "Vidican",
  "Boeriu",
  "Sala",
  "Sfetcu",
  "Pârvu",
  "Mezei",
  "Neculau",
  "Dediu",
  "Pasăre",
  "Boanță",
  "Novac",
  "Căpraru",
  "Robu",
  "Arhire",
  "Poiană",
  "Laslău",
  "Diță",
  "Bunescu",
  "Epure",
  "Mustață",
  "Știr",
  "Ciută",
  "Micu",
  "Țârlă",
  "Irimescu",
  "Muțiu",
  "Săndulescu",
  "Bădescu",
  "Ruse",
  "Georgescu",
  "Barbu",
  "Jianu",
  "Rusu",
  "Boariu",
  "Dumitriu",
  "Muraru",
  "Bordea",
  "Șora",
  "Dobrea",
  "Stelea",
  "Lăcătușu",
  "Filip",
  "Smaranda",
  "Radu",
  "Hângan",
  "Tobă",
  "Elisei",
  "Ilea",
  "Pleșu",
  "Rujan",
  "Pleșa",
  "Tutunaru",
  "Croitor",
  "Avram",
  "Gheorghiu",
  "Cobzaru",
  "Dănilă",
  "Iorga",
  "Andor",
  "Stroie",
  "Vieru",
  "Stroia",
  "Aparaschivei",
  "Bularcă",
  "Buzatu",
  "Ciorbă",
  "Rusen",
  "Iosif",
  "Bârnă",
  "Opriță",
  "Chira",
  "Dragnea",
  "Brezeanu",
  "Porumb",
  "Chiru",
  "Gavriș",
  "Achim",
  "Moldovan",
  "Burtea",
  "Banciu",
  "Cioacă",
  "Tabacu",
  "Rebegea",
  "Andreica",
  "Negrău",
  "Dițu",
  "Budă",
  "Bălan",
  "Nenciu",
  "Bălaj",
  "Groza",
  "Buhai",
  "Ciubotaru",
  "Arsene",
  "Gurgu",
  "Bumbu",
  "Diac",
  "Caraiman",
  "Cuciureanu",
  "Nanu",
  "Bindea",
  "Ușurelu",
  "Axinte",
  "Bălănică",
  "Crivăț",
  "Apetrei",
  "Marcu",
  "Florică",
  "Andreescu",
  "Vaida",
  "Fecioru",
  "Bălău",
  "Broască",
  "Ban",
  "Ulmeanu",
  "Roșca",
  "Rad",
  "Bârsan",
  "Macarie",
  "Untaru",
  "Stafie",
  "Ene",
  "Scridon",
  "Vârlan",
  "Arion",
  "Floarea",
  "Petruț",
  "Petruș",
  "Loghin",
  "Potra",
  "Serea",
  "Dimofte",
  "Pruteanu",
  "Papuc",
  "Bădică",
  "Rață",
  "Câmpan",
  "Zorilă",
  "Dobrotă",
  "Corcodel",
  "Păunescu",
  "Șubă",
  "Bratu",
  "Sauciuc",
  "Badiu",
  "Bălășoiu",
  "Fieraru",
  "Olaru",
  "Matiș",
  "Blidaru",
  "Hrițcu",
  "Voiculescu",
  "Panaite",
  "Ionică",
  "Purcel",
  "Cosma",
  "Roșcă",
  "Mereuță",
  "Boeru",
  "Răduț",
  "Micula",
  "Hagiu",
  "Constandache",
  "Cristian",
  "Băran",
  "Luchian",
  "Ursachi",
  "Herciu",
  "Jalbă",
  "Leuștean",
  "Ursache",
  "Zaharescu",
  "Crudu",
  "Enciu",
  "Pena",
  "Manoliu",
  "Dedu",
  "Stoleru",
  "Dragotă",
  "Timiș",
  "Cioară",
  "Voicilă",
  "Iuga",
  "Cârstoiu",
  "Deaconu",
  "Murgu",
  "Bradea",
  "Moraru",
  "Crețu",
  "Profir",
  "Prodea",
  "Dandu",
  "Burcea",
  "Benga",
  "Busuioc",
  "Dumitru",
  "Trușcă",
  "Grecu",
  "Prisăcariu",
  "Căliman",
  "Pănescu",
  "Bondoc",
  "Ianc",
  "Bălănescu",
  "Păduraru",
  "Harabagiu",
  "Velicu",
  "Stâncă",
  "Borza",
  "Cocoș",
  "Bâlea",
  "Ionescu",
  "Angelescu",
  "Maxim",
  "Hanganu",
  "Boț",
  "Moroșanu",
  "Petrea",
  "Bartoș",
  "Bonțea",
  "Curea",
  "Chețan",
  "Agoston",
  "Mareș",
  "Cionca",
  "Belea",
  "Boloș",
  "Bondar",
  "Agapie",
  "Codrean",
  "Ghineț",
  "Șerban",
  "Bulancea",
  "Racoviță",
  "Spoială",
  "Hulea",
  "Urdă",
  "Pană",
  "Ianoș",
  "Strâmbu",
  "Dobrin",
  "Bălteanu",
  "Ioan",
  "Chifor",
  "Căldăraru",
  "Carp",
  "Lovin",
  "Bănică",
  "Necula",
  "Petrean",
  "Beșleagă",
  "Apetri",
  "Bogdan",
  "Bujoreanu",
  "Ghiță",
  "Dună",
  "Lazea",
  "Ciolan",
  "Sârb",
  "Andronic",
  "Bordianu",
  "Botoș",
  "Eșanu",
  "Bucșă",
  "Ivanovici",
  "Stroescu",
  "Ienciu",
  "Dinu",
  "Done",
  "Nacu",
  "Negreanu",
  "Bonța",
  "Pădureanu",
  "Boghian",
  "Ghioca",
  "Spătariu",
  "Manu",
  "Ungureanu",
  "Folea",
  "Oprea",
  "Muscalu",
  "Ile",
  "Mândru",
  "Geantă",
  "Cojocariu",
  "Murgoci",
  "Dobre",
  "Ifrim",
  "Dobra",
  "Lupea",
  "Vodă",
  "Dobrică",
  "Plopeanu",
  "Coteț",
  "Enăchescu",
  "Bârlădeanu",
  "Cruceanu",
  "Gomboș",
  "Cârcu",
  "Dragomir",
  "Atomei",
  "Petroiu",
  "Ciora",
  "Verdeș",
  "Popică",
  "Din",
  "Raicu",
  "Panduru",
  "Raica",
  "Tomescu",
  "Pască",
  "Bejenaru",
  "Budur",
  "Ștefan",
  "Ghețu",
  "Călinescu",
  "Borcea",
  "Chiș",
  "Boboc",
  "Ghinea",
  "Mailat",
  "Toader",
  "Bolog",
  "Arnăutu",
  "Antonie",
  "Păcală",
  "Manolache",
  "Gavril",
  "Teacă",
  "Cheregi",
  "Simionca",
  "Bob",
  "Butuc",
  "Barb",
  "Hangă",
  "Petcu",
  "Duma",
  "Guzu",
  "Butacu",
  "Codreanu",
  "Puiu",
  "Burghelea",
  "Ulici",
  "Pavel",
  "Pascu",
  "Jipa",
  "Ciurea",
  "Dima",
  "Șerbănescu",
  "Țifrea",
  "Buză",
  "Predescu",
  "Rădulescu",
  "Asandei",
  "Zidaru",
  "Cherciu",
  "Bortoș",
  "Măciucă",
  "Zugravu",
  "Macavei",
  "Vieriu",
  "Cenușă",
  "Vlădoiu",
  "Nechifor",
  "Pascal",
  "Mateescu",
  "Pânzaru",
  "Șeitan",
  "Belu",
  "Cotea",
  "Grădinariu",
  "Matache",
  "Slabu",
  "Enache",
  "Gherasim",
  "Man",
  "Dorneanu",
  "Vasiu",
  "Movileanu",
  "Ștefănică",
  "Vătafu",
  "Drăcea",
  "Coca",
  "Rotar",
  "Ioana",
  "Berechet",
  "Filipescu",
  "Trifu",
  "Brad",
  "Borș",
  "Pleșea",
  "Negrean",
  "Ion",
  "Grancea",
  "Mateaș",
  "Aldea",
  "Istrate",
  "Udrescu",
  "Irimie",
  "Irimia",
  "Ilaș",
  "Moroianu",
  "Joiță",
  "Caraman",
  "Ciucu",
  "Pușcă",
  "Boer",
  "Tufă",
  "Țăran",
  "Sima",
  "Ioniță",
  "Nică",
  "Târziu",
  "Runcan",
  "Fulgă",
  "Oroș",
  "Hogea",
  "Despa",
  "Comșa",
  "Turtoi",
  "Budeanu",
  "Dudaș",
  "Cărbunaru",
  "Imbrea",
  "Negrea",
  "Vasilache",
  "Opriș",
  "Marta",
  "Haiduc",
  "Marinescu",
  "Graur",
  "Pârjol",
  "Ureche",
  "Neicu",
  "Lupulescu",
  "Udroiu",
  "Pupăză",
  "Turcanu",
  "Nicu",
  "Chiriță",
  "Ciucă",
  "Moca",
  "Ibănescu",
  "Tătar",
  "Lucaci",
  "Biriș",
  "Dincă",
  "Dumitrașcu",
  "Crișan",
  "Pânzariu",
  "Țolea",
  "Panaitescu",
  "Anca",
  "Gui",
  "Hristea",
  "Bobe",
  "Boghiu",
  "Dulgheru",
  "Hațegan",
  "Frățilă",
  "Nicola",
  "Șerbu",
  "Voina",
  "Bolocan",
  "Cojanu",
  "Gherghe",
  "Gruia",
  "Moisei",
  "Axente",
  "Vultur",
  "Scripcaru",
  "Cerbu",
  "Mușat",
  "Iacobescu",
  "Oproiu",
  "Tomșa",
  "Pâslaru",
  "Albulescu",
  "Botiș",
  "Roman",
  "Airinei",
  "Cristache",
  "Ciupitu",
  "Băjenaru",
  "Marțin",
  "Balaș",
  "Caba",
  "Giurgiu",
  "Ionel",
  "Onu",
  "Buzilă",
  "Mitru",
  "Ursu",
  "Călugăr",
  "Davidescu",
  "Glodeanu",
  "Ursa",
  "Urse",
  "Ducă",
  "Croitoru",
  "Vâlcu",
  "Iordan",
  "Bodi",
  "Negru",
  "Săvulescu",
  "Boda",
  "Jucan",
  "Florescu",
  "Țuțu",
  "Petrovan",
  "Adam",
  "Moldoveanu",
  "Colceriu",
  "Drăgan",
  "Sas",
  "Sav",
  "Leucă",
  "Dragne",
  "Cruceru",
  "Gafton",
  "Bursuc",
  "Lăpădat",
  "Teodor",
  "Prepeliță",
  "Timaru",
  "Ivănescu",
  "Calancea",
  "Dumbravă",
  "Miloș",
  "Budău",
  "Vicol",
  "Drăgănescu",
  "Buruiană",
  "Alexe",
  "Negrilă",
  "Ciupe",
  "Cercel",
  "Furdui",
  "Iftode",
  "Ciochină",
  "Voican",
  "Spiridon",
  "Răducan",
  "Bălăban",
  "Oniță",
  "Anghelina",
  "Ciulei",
  "Petric",
  "Dinulescu",
  "Ojog",
  "Vasiliu",
  "Păuna",
  "Abrudan",
  "Floroiu",
  "Catrina",
  "Tudoran",
  "Cristescu",
  "Vizireanu",
  "Gorea",
  "Nichita",
  "Dudău",
  "Pintea",
  "Bunduc",
  "Spulber",
  "Stoia",
  "Crăcană",
  "Costescu",
  "Moțoc",
  "Mihali",
  "Ciobanu",
  "Stegaru",
  "Geană",
  "Bogatu",
  "Alistar",
  "Ciolacu",
  "Bătrânu",
  "Pap",
  "Leca",
  "Anton",
  "Bordaș",
  "Neațu",
  "Cioroianu",
  "Răducanu",
  "Iancu",
  "Negoiță",
  "Băican",
  "Iordache",
  "Grădinaru",
  "Duminică",
  "Babă",
  "Onofrei",
  "Zamfirache",
  "Corduneanu",
  "Dordea",
  "Bugnar",
  "Mâțu",
  "Rotariu",
  "Brânză",
  "Cristea",
  "Abraham",
  "Lenghel",
  "Dămian",
  "Năsui",
  "Afloarei",
  "Pop",
  "Baciu",
  "Bene",
  "Băncilă",
  "Zaharia",
  "Dumitrache",
  "Murariu",
  "Cârstea",
  "Vlad",
  "Diaconu",
  "Deleanu",
  "Bărbuceanu",
  "Topală",
  "Iuhaș",
  "Stănică",
  "Penciu",
  "Țurlea",
  "Andrici",
  "Dimache",
  "Diaconescu",
  "Simionescu",
  "Ababei",
  "Anghelescu",
  "Mutu",
  "Stoican",
  "Surdu",
  "Taloș",
  "Petru",
  "Dogaru",
  "Golea",
  "Pleșca",
  "Sipoș",
  "Dumitraș",
  "Petri",
  "Perju",
  "Petre",
  "Țigău",
  "Jula",
  "Bălașa",
  "Răuță",
  "Tudora",
  "Bibire",
  "Trăistaru",
  "Neguț",
  "Roibu",
  "Răduță",
  "Sălăjan",
  "Alecu",
  "Olah",
  "Precup",
  "Ruja",
  "Andraș",
  "Olar",
  "Dinică",
  "Truță",
  "Scutaru",
  "Morariu",
  "Mija",
  "Mazilu",
  "Alexandrescu",
  "Podaru",
  "Bumb",
  "Bostan",
  "Bulzan",
  "Țapu",
  "Ivașcu",
  "Iordăchescu",
  "Prodan",
  "Mirea",
  "Mircea",
  "Bărbieru",
  "Cojocaru",
  "Mihalcă",
  "Răducu",
  "Gorgan",
  "Neacșa",
  "Vasilică",
  "Bodo",
  "Flore",
  "Gaiță",
  "Marica",
  "Știrbu",
  "Neacșu",
  "Stănculescu",
  "Ana",
  "Lefter",
  "Doroftei",
  "Angheluță",
  "Soare",
  "Ceaușu",
  "Buligă",
  "Petrilă",
  "Cârlan",
  "Herța",
  "Minea",
  "Bușe",
  "Chirițoiu",
  "Nemeș",
  "Boroș",
  "Iftime",
  "Crainic",
  "Mariș",
  "Vrabie",
  "Ghica",
  "Sabo",
  "Grec",
  "Hâncu",
  "Bădoiu",
  "Ianculescu",
  "Fătu",
  "Morar",
  "Teodorescu",
  "Faur",
  "Stere",
  "Stamate",
  "Mădăraș",
  "Vrânceanu",
  "Țugui",
  "Tudosă",
  "Vlașin",
  "Vereș",
  "Oană",
  "Ciupercă",
  "Vițan",
  "Pandele",
  "Panțuru",
  "Ignat",
  "Tudoroiu",
  "Moț",
  "Moș",
  "Coroian",
  "Ciutacu",
  "Creangă",
  "Chirică",
  "Fulea",
  "Enescu",
  "Nichifor",
  "Maria",
  "Damaschin",
  "Giurea",
  "Paraschiv",
  "Antochi",
  "Secăreanu",
  "Șuțu",
  "Zăgrean",
  "Scurtu",
  "Fotache",
  "Negruț",
  "Gavrilaș",
  "Stroe",
  "Vătavu",
  "Benchea",
  "Țintea",
  "Mihăilescu",
  "Buciu",
  "Stănilă",
  "Neghină",
  "Aramă",
  "Lup",
  "Sabău",
  "Chelu",
  "Cojoc",
  "Mărgărit",
  "Bălăiță",
  "Neamț",
  "Văcaru",
  "Alexa",
  "Gavrilescu",
  "Todea",
  "Mironescu",
  "Tomoiagă",
  "Dragoș",
  "Ciudin",
  "Țiplea",
  "Chirea",
  "Bădulescu",
  "Ciocârlan",
  "Iosub",
  "Baicu",
  "Haidu",
  "Tănăsescu",
  "Geambașu",
  "Dăscălescu",
  "Bodor",
  "Tudose",
  "Blidar",
  "Arhip",
  "Malița",
  "Merlușcă",
  "Stângă",
  "Drăghici",
  "Oancea",
  "Sterian",
  "Butoi",
  "Corbu",
  "Buică",
  "Cernea",
  "Pandelea",
  "Marin",
  "Timar",
  "Neamțu",
  "Ionașcu",
  "Neda",
  "Secară",
  "Șuță",
  "Stanciu",
  "Dascăl",
  "Lixandru",
  "Leahu",
  "Vintilă",
  "Safta",
  "Stoenescu",
  "Iliescu",
  "Dragu",
  "Vătămanu",
  "Cepoi",
  "Almășan",
  "Albu"
]
